%YAML 1.1
%TAG !u! tag:unity3d.com,2011:
--- !u!114 &11400000
MonoBehaviour:
  m_ObjectHideFlags: 0
  m_CorrespondingSourceObject: {fileID: 0}
  m_PrefabInstance: {fileID: 0}
  m_PrefabAsset: {fileID: 0}
  m_GameObject: {fileID: 0}
  m_Enabled: 1
  m_EditorHideFlags: 0
  m_Script: {fileID: 11500000, guid: 0f5a75d13b37d6b41b70ce6a06c0ed7a, type: 3}
  m_Name: Glock
  m_EditorClassIdentifier: 
  weaponNumber: 1
  chargerS: 20
  MaxchargerS: 20
  MaxBalas: 4840
  damage: 20
  timeBetweenShots: 0.5
  dispersion: 0.03
  rangeS: 300
  momentoS: 100
  zoomMira: 0.15
  semiAuto: 0
  nShotsOnSemiAuto: 3
  impactS: {fileID: 1278410308571632, guid: e7e1748b82224421c9c0c2d12f4e8360, type: 3}
  shootClipS: {fileID: 8300000, guid: 92164f1667791bf4b926aa172c416124, type: 3}
  emptyShootClipS: {fileID: 8300000, guid: 8e3381f4d4933e54e9b3d679aafa5797, type: 3}
  rechargeClip: {fileID: 8300000, guid: 49445863fb03df24e81d6b088856f783, type: 3}
  foto: {fileID: 21300010, guid: 6674e8c43c63e4f4184cbd009379498d, type: 3}
  fotoBala: {fileID: 21300000, guid: 5163ae49a0de665458bba61cd20c99b1, type: 3}
